module gitbub.com/go-programming-tour-book/tour

go 1.16

require (
	github.com/davecgh/go-spew v1.1.1 // indirect
	github.com/go-sql-driver/mysql v1.6.0 // indirect
	github.com/spf13/cobra v1.0.0
	github.com/spf13/pflag v1.0.5 // indirect
)
